5 Fit ARIMA class models using R – DSA 554 3.0 Spatio-temporal Data Analysis
…
5.4 Monthly data

library(TourSriLanka)
data(earnings)
earnings

# A tibble: 180 × 3
   Month   Year  Earnings
   <chr>   <chr>    <dbl>
 1 January 2009      30  
 2 January 2010      44.7
 3 January 2011      72  
 4 January 2012      88.9
 5 January 2013     149. 
 6 January 2014     233. 
 7 January 2015     259  
 8 January 2016     333. 
 9 January 2017     407. 
10 January 2018     448. 
# ℹ 170 more rows

5.5 Sort data according to the year

earnings <- earnings |>
  arrange(Year, match(Month, month.name) )
earnings

# A tibble: 180 × 3
   Month     Year  Earnings
   <chr>     <chr>    <dbl>
 1 January   2009      30  
 2 February  2009      26.7
 3 March     2009      26.6
 4 April     2009      20.3
 5 May       2009      19.3
 6 June      2009      23.6
 7 July      2009      33  
 8 August    2009      32.2
 9 September 2009      29.6
10 October   2009      29.3
# ℹ 170 more rows
…
seq(ymd_hm("2015-1-1 0:00"), ymd_hm("2015-1-1 12:00"), by = "hour")

 [1] "2015-01-01 00:00:00 UTC" "2015-01-01 01:00:00 UTC"
 [3] "2015-01-01 02:00:00 UTC" "2015-01-01 03:00:00 UTC"
 [5] "2015-01-01 04:00:00 UTC" "2015-01-01 05:00:00 UTC"
 [7] "2015-01-01 06:00:00 UTC" "2015-01-01 07:00:00 UTC"
 [9] "2015-01-01 08:00:00 UTC" "2015-01-01 09:00:00 UTC"
[11] "2015-01-01 10:00:00 UTC" "2015-01-01 11:00:00 UTC"
[13] "2015-01-01 12:00:00 UTC"

y.earnings <- earnings |> mutate(Date = seq(ymd_hm("2009-1-1 0:00"), ymd_hm("2023-12-1 12:00"), by = "month"))
y.earnings

# A tibble: 180 × 4
   Month     Year  Earnings Date               
   <chr>     <chr>    <dbl> <dttm>             
 1 January   2009      30   2009-01-01 00:00:00
 2 February  2009      26.7 2009-02-01 00:00:00
 3 March     2009      26.6 2009-03-01 00:00:00
 4 April     2009      20.3 2009-04-01 00:00:00
 5 May       2009      19.3 2009-05-01 00:00:00
 6 June      2009      23.6 2009-06-01 00:00:00
 7 July      2009      33   2009-07-01 00:00:00
 8 August    2009      32.2 2009-08-01 00:00:00
 9 September 2009      29.6 2009-09-01 00:00:00
10 October   2009      29.3 2009-10-01 00:00:00
# ℹ 170 more rows

Create year-month column

y.earnings <- y.earnings |>
  select(Earnings, Date) |> mutate(Time = yearmonth(Date))
y.earnings

# A tibble: 180 × 3
   Earnings Date                    Time
      <dbl> <dttm>                 <mth>
 1     30   2009-01-01 00:00:00 2009 Jan
 2     26.7 2009-02-01 00:00:00 2009 Feb
 3     26.6 2009-03-01 00:00:00 2009 Mar
 4     20.3 2009-04-01 00:00:00 2009 Apr
 5     19.3 2009-05-01 00:00:00 2009 May
 6     23.6 2009-06-01 00:00:00 2009 Jun
 7     33   2009-07-01 00:00:00 2009 Jul
 8     32.2 2009-08-01 00:00:00 2009 Aug
 9     29.6 2009-09-01 00:00:00 2009 Sep
10     29.3 2009-10-01 00:00:00 2009 Oct
# ℹ 170 more rows

Convert it to tsibble

ts.earnings <- y.earnings |>
  select(Earnings, Time) |> as_tsibble(index=Time)
ts.earnings

# A tsibble: 180 x 2 [1M]
   Earnings     Time
      <dbl>    <mth>
 1     30   2009 Jan
 2     26.7 2009 Feb
 3     26.6 2009 Mar
 4     20.3 2009 Apr
 5     19.3 2009 May
 6     23.6 2009 Jun
 7     33   2009 Jul
 8     32.2 2009 Aug
 9     29.6 2009 Sep
10     29.3 2009 Oct
# ℹ 170 more rows
…
